%YAML 1.1
%TAG !u! tag:unity3d.com,2011:
--- !u!1045 &1
EditorBuildSettings:
  m_ObjectHideFlags: 0
  serializedVersion: 2
  m_Scenes:
  - enabled: 1
    path: Assets/Scenes/SampleScene 1.unity
    guid: 3e826434ca76dfe48ae25e9079a820dd
  - enabled: 1
    path: Assets/Scenes/Scene1.unity
    guid: 3f4f6def8db02624ab8ea59d0a13f9be
  m_configObjects: {}
